<!-- Generated by IcoMoon.io -->
<svg version="1.1" xmlns="http://www.w3.org/2000/svg" width="96" height="96" viewBox="0 0 96 96">
<title>exit_to_app</title>
<path d="M75.938 12c4.313 0 8.063 3.75 8.063 8.063v55.875c0 4.313-3.75 8.063-8.063 8.063h-55.875c-4.5 0-8.063-3.75-8.063-8.063v-15.938h8.063v15.938h55.875v-55.875h-55.875v15.938h-8.063v-15.938c0-4.313 3.563-8.063 8.063-8.063h55.875zM40.313 62.438l10.313-10.5h-38.625v-7.875h38.625l-10.313-10.5 5.625-5.625 20.063 20.063-20.063 20.063z"></path>
</svg>
